digraph pipeline {
  rankdir=LR;
  fontname="sans";
  fontsize="10";
  labelloc=t;
  nodesep=.1;
  ranksep=.2;
  label="<GstBin>\noutputbin\n[=]\nparent=(GstPipeline) Gundos Out";
  node [style=filled, shape=box, fontsize="9", fontname="sans", margin="0.0,0.0"];
  edge [labelfontsize="6", fontsize="9", fontname="monospace"];

  subgraph cluster_capsfilter0_0x22da050 {
    fontname="Bitstream Vera Sans";
    fontsize="8";
    style=filled;
    color=black;

    label="GstCapsFilter\ncapsfilter0\n[=]\nparent=(GstBin) outputbin\ncaps=audio/x-raw, channels=(int)1";
    capsfilter0_0x22da050_sink_0x21eae30 [color=black, fillcolor="#aaaaff", label="sink\n[>][bfb]", height="0.2", style="filled,solid"];
    capsfilter0_0x22da050_src_0x21eb060 [color=black, fillcolor="#ffaaaa", label="src\n[>][bfb]", height="0.2", style="filled,solid"];
    fillcolor="#aaffaa";
  }

  capsfilter0_0x22da050_src_0x21eb060 -> audioconvert_2_0x224b1e0_sink_0x21ea7a0 [label="audio/x-raw\l              format: S16LE\l              layout: interleaved\l                rate: 44100\l            channels: 1\l"]
  subgraph cluster_autoaudiosink_3_0x21e3000 {
    fontname="Bitstream Vera Sans";
    fontsize="8";
    style=filled;
    color=black;

    label="GstAutoAudioSink\nautoaudiosink-3\n[=]\nparent=(GstBin) outputbin\nfilter-caps=audio/x-raw";
    _proxypad0_0x22d8020 [color=black, fillcolor="#ddddff", label="proxypad0\n[>][bfb]", height="0.2", style="filled,solid"];
  autoaudiosink_3_0x21e3000_sink_0x22d60b0 -> _proxypad0_0x22d8020 [style=dashed, minlen=0]
    autoaudiosink_3_0x21e3000_sink_0x22d60b0 [color=black, fillcolor="#ddddff", label="sink\n[>][bfb]", height="0.2", style="filled,solid"];
    fillcolor="#ffffff";
    subgraph cluster_autoaudiosink_3_actual_sink_pulse_0x24110d0 {
      fontname="Bitstream Vera Sans";
      fontsize="8";
      style=filled;
      color=black;

      label="GstPulseSink\nautoaudiosink-3-actual-sink-pulse\n[=]\nparent=(GstAutoAudioSink) autoaudiosink-3\nenable-last-sample=FALSE\ndevice=\"alsa_output.pci-0000_00_05.0.analog-stereo\"\ndevice-name=\"Built-in Audio Analog Stereo\"\nvolume=0.285253";
      autoaudiosink_3_actual_sink_pulse_0x24110d0_sink_0x2308280 [color=black, fillcolor="#aaaaff", label="sink\n[>][bfb]", height="0.2", style="filled,solid"];
      fillcolor="#aaaaff";
    }

    _proxypad0_0x22d8020 -> autoaudiosink_3_actual_sink_pulse_0x24110d0_sink_0x2308280 [label="audio/x-raw\l              format: S16LE\l              layout: interleaved\l                rate: 44100\l            channels: 1\l"]
  }

  subgraph cluster_audioconvert_2_0x224b1e0 {
    fontname="Bitstream Vera Sans";
    fontsize="8";
    style=filled;
    color=black;

    label="GstAudioConvert\naudioconvert-2\n[=]\nparent=(GstBin) outputbin";
    audioconvert_2_0x224b1e0_sink_0x21ea7a0 [color=black, fillcolor="#aaaaff", label="sink\n[>][bfb]", height="0.2", style="filled,solid"];
    audioconvert_2_0x224b1e0_src_0x21ea9d0 [color=black, fillcolor="#ffaaaa", label="src\n[>][bfb]", height="0.2", style="filled,solid"];
    fillcolor="#aaffaa";
  }

  audioconvert_2_0x224b1e0_src_0x21ea9d0 -> volume_1_0x222b830_sink_0x21ea340 [label="audio/x-raw\l              format: S16LE\l              layout: interleaved\l                rate: 44100\l            channels: 1\l"]
  subgraph cluster_volume_1_0x222b830 {
    fontname="Bitstream Vera Sans";
    fontsize="8";
    style=filled;
    color=black;

    label="GstVolume\nvolume-1\n[=]\nparent=(GstBin) outputbin\nvolume=0.026000";
    volume_1_0x222b830_sink_0x21ea340 [color=black, fillcolor="#aaaaff", label="sink\n[>][bfb]", height="0.2", style="filled,solid"];
    volume_1_0x222b830_src_0x21ea570 [color=black, fillcolor="#ffaaaa", label="src\n[>][bfb]", height="0.2", style="filled,solid"];
    fillcolor="#aaffaa";
  }

  volume_1_0x222b830_src_0x21ea570 -> autoaudiosink_3_0x21e3000_sink_0x22d60b0 [label="audio/x-raw\l              format: S16LE\l              layout: interleaved\l                rate: 44100\l            channels: 1\l"]
  subgraph cluster_audiotestsrc_0_0x223ac50 {
    fontname="Bitstream Vera Sans";
    fontsize="8";
    style=filled;
    color=black;

    label="GstAudioTestSrc\naudiotestsrc-0\n[=]\nparent=(GstBin) outputbin\nblocksize=2048\nfreq=72.000000";
    audiotestsrc_0_0x223ac50_src_0x21ea110 [color=black, fillcolor="#ffaaaa", label="src\n[>][bfb]", height="0.2", style="filled,solid"];
    fillcolor="#ffaaaa";
  }

  audiotestsrc_0_0x223ac50_src_0x21ea110 -> capsfilter0_0x22da050_sink_0x21eae30 [label="audio/x-raw\l              format: S16LE\l              layout: interleaved\l                rate: 44100\l            channels: 1\l"]
}
